<svg  width="26" height="26" xmlns="http://www.w3.org/2000/svg" x="0px" y="0px"
	 viewBox="0 0 128 128">
	 <polygon points="5 123, 46 5, 123 102" fill="transparent" stroke="black" stroke-width="10"/>
</svg>
